8 Data Management – Data Science for Economic and Social Issues
…
8.2.2.1 Select Variables

The general form of functions in dplyr involves identifying the data frame first and then specifying the options. To demonstrate, the function select chooses which variables.

select(tib1, country)

# A tibble: 197 × 1
   country            
   <chr>              
 1 Afghanistan        
 2 Albania            
 3 Algeria            
 4 Andorra            
 5 Angola             
 6 Antigua and Barbuda
 7 Argentina          
 8 Armenia            
 9 Australia          
10 Austria            
# ℹ 187 more rows
…
There are several ways to select more than one variable. The last method used a helper, starts_with(). See the documentation for select for other helpers.

select(tib1, country, gdp)
select(tib1, gdp:gini)
select(tib1, -gdp)
select(tib1, -c(country, gini))
select(tib1, starts_with("g"))

Sometimes it is desirable to rename variables when selecting them. This is very convenient in select!

select(tib1, country_name = country)

# A tibble: 197 × 1
   country_name       
   <chr>              
 1 Afghanistan        
 2 Albania            
 3 Algeria            
 4 Andorra            
 5 Angola             
 6 Antigua and Barbuda
 7 Argentina          
 8 Armenia            
 9 Australia          
10 Austria            
# ℹ 187 more rows

select(tib1, var = starts_with("g"))

# A tibble: 197 × 2
    var1  var2
   <dbl> <dbl>
 1   574  36.8
 2  4520  29  
 3  4780  27.6
 4 42100  40  
 5  3750  42.6
 6 13300  40  
 7 10600  41.8
 8  3920  31.9
 9 55100  32.3
10 47800  30.6
# ℹ 187 more rows

8.2.2.2 Rename and Create Variables

If you want to rename variables without dropping any, use the function rename.

rename(tib1, country_name = country)

# A tibble: 197 × 4
   country_name          gdp  gini region             
   <chr>               <dbl> <dbl> <chr>              
 1 Afghanistan           574  36.8 Asia & Pacific     
 2 Albania              4520  29   Europe             
 3 Algeria              4780  27.6 Arab States        
 4 Andorra             42100  40   Europe             
 5 Angola               3750  42.6 Africa             
 6 Antigua and Barbuda 13300  40   South/Latin America
 7 Argentina           10600  41.8 South/Latin America
 8 Armenia              3920  31.9 Europe             
 9 Australia           55100  32.3 Asia & Pacific     
10 Austria             47800  30.6 Europe             
# ℹ 187 more rows

rename(tib1, country_name = country, gdp_percapita = gdp)

# A tibble: 197 × 4
   country_name        gdp_percapita  gini region             
   <chr>                       <dbl> <dbl> <chr>              
 1 Afghanistan                   574  36.8 Asia & Pacific     
 2 Albania                      4520  29   Europe             
 3 Algeria                      4780  27.6 Arab States        
 4 Andorra                     42100  40   Europe             
 5 Angola                       3750  42.6 Africa             
 6 Antigua and Barbuda         13300  40   South/Latin America
 7 Argentina                   10600  41.8 South/Latin America
 8 Armenia                      3920  31.9 Europe             
 9 Australia                   55100  32.3 Asia & Pacific     
10 Austria                     47800  30.6 Europe             
# ℹ 187 more rows

The function mutate() allows for new variables to be added to the data frame or existing variables to be modified without changing the other variables.

mutate(tib1, gdp_sq = gdp^2)

# A tibble: 197 × 5
   country               gdp  gini region                  gdp_sq
   <chr>               <dbl> <dbl> <chr>                    <dbl>
 1 Afghanistan           574  36.8 Asia & Pacific          329476
 2 Albania              4520  29   Europe                20430400
 3 Algeria              4780  27.6 Arab States           22848400
 4 Andorra             42100  40   Europe              1772410000
 5 Angola               3750  42.6 Africa                14062500
 6 Antigua and Barbuda 13300  40   South/Latin America  176890000
 7 Argentina           10600  41.8 South/Latin America  112360000
 8 Armenia              3920  31.9 Europe                15366400
 9 Australia           55100  32.3 Asia & Pacific      3036010000
10 Austria             47800  30.6 Europe              2284840000
# ℹ 187 more rows

mutate(tib1, row_id = 1:length(country))

# A tibble: 197 × 5
   country               gdp  gini region              row_id
   <chr>               <dbl> <dbl> <chr>                <int>
 1 Afghanistan           574  36.8 Asia & Pacific           1
 2 Albania              4520  29   Europe                   2
 3 Algeria              4780  27.6 Arab States              3
 4 Andorra             42100  40   Europe                   4
 5 Angola               3750  42.6 Africa                   5
 6 Antigua and Barbuda 13300  40   South/Latin America      6
 7 Argentina           10600  41.8 South/Latin America      7
 8 Armenia              3920  31.9 Europe                   8
 9 Australia           55100  32.3 Asia & Pacific           9
10 Austria             47800  30.6 Europe                  10
# ℹ 187 more rows

mutate(tib1, gdp_large = ifelse(gdp >= 25000, TRUE, FALSE))

# A tibble: 197 × 5
   country               gdp  gini region              gdp_large
   <chr>               <dbl> <dbl> <chr>               <lgl>    
 1 Afghanistan           574  36.8 Asia & Pacific      FALSE    
 2 Albania              4520  29   Europe              FALSE    
 3 Algeria              4780  27.6 Arab States         FALSE    
 4 Andorra             42100  40   Europe              TRUE     
 5 Angola               3750  42.6 Africa              FALSE    
 6 Antigua and Barbuda 13300  40   South/Latin America FALSE    
 7 Argentina           10600  41.8 South/Latin America FALSE    
 8 Armenia              3920  31.9 Europe              FALSE    
 9 Australia           55100  32.3 Asia & Pacific      TRUE     
10 Austria             47800  30.6 Europe              TRUE     
# ℹ 187 more rows

If you want to create a new variable and drop the other variables, use the function transmute().

transmute(tib1, gini_small = ifelse(gini <= 40, TRUE, FALSE))

# A tibble: 197 × 1
   gini_small
   <lgl>     
 1 TRUE      
 2 TRUE      
 3 TRUE      
 4 TRUE      
 5 FALSE     
 6 TRUE      
 7 FALSE     
 8 TRUE      
 9 TRUE      
10 TRUE      
# ℹ 187 more rows
…
# A tibble: 6 × 4
  country                    gdp  gini region             
  <chr>                    <dbl> <dbl> <chr>              
1 Cape Verde                3410  47.2 Africa             
2 Central African Republic   347  56.2 Africa             
3 Chad                       957  43.3 Africa             
4 Chile                    14700  47.5 South/Latin America
5 China                     6500  39.4 Asia & Pacific     
6 Colombia                  7580  51.7 South/Latin America

The function distinct() filters out duplicated rows.

distinct(tib1)

# A tibble: 195 × 4
   country               gdp  gini region             
   <chr>               <dbl> <dbl> <chr>              
 1 Afghanistan           574  36.8 Asia & Pacific     
 2 Albania              4520  29   Europe             
 3 Algeria              4780  27.6 Arab States        
 4 Andorra             42100  40   Europe             
 5 Angola               3750  42.6 Africa             
 6 Antigua and Barbuda 13300  40   South/Latin America
 7 Argentina           10600  41.8 South/Latin America
 8 Armenia              3920  31.9 Europe             
 9 Australia           55100  32.3 Asia & Pacific     
10 Austria             47800  30.6 Europe             
# ℹ 185 more rows
…
8.2.2.4 Organize

The functions so far produce data frames that explicitly differ from the inputted data frame. There are some silent functions that change the underlying structure without changing the outputted data frame. The function group_by() is an example of these silent functions. It groups the data based on the values of a set of variables. It makes most sense to group by categorical variables. The only difference is that now it says Groups: region [7].

group_tib1 <- group_by(tib1, region)
group_tib1

# A tibble: 197 × 4
# Groups:   region [7]
   country               gdp  gini region             
   <chr>               <dbl> <dbl> <chr>              
 1 Afghanistan           574  36.8 Asia & Pacific     
 2 Albania              4520  29   Europe             
 3 Algeria              4780  27.6 Arab States        
 4 Andorra             42100  40   Europe             
 5 Angola               3750  42.6 Africa             
 6 Antigua and Barbuda 13300  40   South/Latin America
 7 Argentina           10600  41.8 South/Latin America
 8 Armenia              3920  31.9 Europe             
 9 Australia           55100  32.3 Asia & Pacific     
10 Austria             47800  30.6 Europe             
# ℹ 187 more rows

Ungrouping the data is another silent function and it removes this underlying grouping.

ungroup(group_tib1)

# A tibble: 197 × 4
   country               gdp  gini region             
   <chr>               <dbl> <dbl> <chr>              
 1 Afghanistan           574  36.8 Asia & Pacific     
 2 Albania              4520  29   Europe             
 3 Algeria              4780  27.6 Arab States        
 4 Andorra             42100  40   Europe             
 5 Angola               3750  42.6 Africa             
 6 Antigua and Barbuda 13300  40   South/Latin America
 7 Argentina           10600  41.8 South/Latin America
 8 Armenia              3920  31.9 Europe             
 9 Australia           55100  32.3 Asia & Pacific     
10 Austria             47800  30.6 Europe             
# ℹ 187 more rows

The function arrange sorts the data based on the rank order of a set of variables. Adding desc() changes the rank-order to descending.

arrange(tib1, gini)

# A tibble: 197 × 4
   country           gdp  gini region        
   <chr>           <dbl> <dbl> <chr>         
 1 Ukraine          2830  24.8 Europe        
 2 Slovenia        23800  25.6 Europe        
 3 Czech Republic  21400  26   Europe        
 4 Slovak Republic 18900  26.7 Europe        
 5 Belarus          6380  26.9 Europe        
 6 Kazakhstan      10600  26.9 Asia & Pacific
 7 Moldova          2950  27   Europe        
 8 Finland         45600  27.1 Europe        
 9 Norway          90000  27.1 Europe        
10 Norway          90000  27.1 Europe        
# ℹ 187 more rows

arrange(tib1, desc(region), gini)

# A tibble: 197 × 4
   country                          gdp  gini region             
   <chr>                          <dbl> <dbl> <chr>              
 1 Antigua and Barbuda            13300  40   South/Latin America
 2 Dominica                        6890  40   South/Latin America
 3 Grenada                         8190  40   South/Latin America
 4 St. Kitts and Nevis            16700  40   South/Latin America
 5 St. Vincent and the Grenadines  6580  40   South/Latin America
 6 Uruguay                        13900  40.1 South/Latin America
 7 El Salvador                     3310  41.1 South/Latin America
 8 Trinidad and Tobago            16800  41.3 South/Latin America
 9 Argentina                      10600  41.8 South/Latin America
10 St. Lucia                       8490  42.6 South/Latin America
# ℹ 187 more rows
…
