9 Merging and Reshaping Data – Data Science for Economic and Social Issues
…
The different join functions relate to which observations are kept. In full_join(), all observations in the two data frames are kept, even if there are unmatched observations. The argument by indicates which variable on which to match.

full_join(tib1, pop, by = "country")

# A tibble: 197 × 5
   country               gdp  gini region              population
   <chr>               <dbl> <dbl> <chr>                    <dbl>
 1 Afghanistan           574  36.8 Asia & Pacific        34400000
 2 Albania              4520  29   Europe                 2890000
 3 Algeria              4780  27.6 Arab States           39700000
 4 Andorra             42100  40   Europe                   78000
 5 Angola               3750  42.6 Africa                27900000
 6 Antigua and Barbuda 13300  40   South/Latin America      93600
 7 Argentina           10600  41.8 South/Latin America   43100000
 8 Armenia              3920  31.9 Europe                 2930000
 9 Australia           55100  32.3 Asia & Pacific        23900000
10 Austria             47800  30.6 Europe                 8680000
# ℹ 187 more rows
…
The function left_join() only keeps from the data frame in the left argument (tib1 in this case).

left_join(tib1, popA, by = "country")

# A tibble: 197 × 5
   country               gdp  gini region              population
   <chr>               <dbl> <dbl> <chr>                    <dbl>
 1 Afghanistan           574  36.8 Asia & Pacific        34400000
 2 Albania              4520  29   Europe                 2890000
 3 Algeria              4780  27.6 Arab States           39700000
 4 Andorra             42100  40   Europe                   78000
 5 Angola               3750  42.6 Africa                27900000
 6 Antigua and Barbuda 13300  40   South/Latin America      93600
 7 Argentina           10600  41.8 South/Latin America   43100000
 8 Armenia              3920  31.9 Europe                 2930000
 9 Australia           55100  32.3 Asia & Pacific        23900000
10 Austria             47800  30.6 Europe                 8680000
# ℹ 187 more rows
…
The function anti_join() keeps all rows in tib1 that do not have a match in popA.

anti_join(tib1, popA, by = "country")

# A tibble: 186 × 4
   country      gdp  gini region             
   <chr>      <dbl> <dbl> <chr>              
 1 Bahamas    27500  43.7 South/Latin America
 2 Bahrain    22400  40   Arab States        
 3 Bangladesh  1000  32.3 Asia & Pacific     
 4 Barbados   15800  43.8 South/Latin America
 5 Belarus     6380  26.9 Europe             
 6 Belgium    45500  27.8 Europe             
 7 Belize      4300  53.3 South/Latin America
 8 Benin       1130  46.9 Africa             
 9 Bhutan      2780  38   Asia & Pacific     
10 Bolivia     2360  46.3 South/Latin America
# ℹ 176 more rows
…
# Select columns using tidy-select
# Dictate pattern with names_sep
long_tib1 <- pivot_longer(tib1,
                       contains("_"),
                       names_to = c("var", "year"),
                       names_sep = "_")

# Select columns using column indices
pivot_longer(tib1,
             5:21,
             names_to = c("var", "year"),
             names_sep = "_")

# A tibble: 3,315 × 7
   country     gdp_2015 gini_2015 region         var   year   value
   <chr>          <dbl>     <dbl> <chr>          <chr> <chr>  <dbl>
 1 Afghanistan      574      36.8 Asia & Pacific co2   2015   0.262
 2 Afghanistan      574      36.8 Asia & Pacific co2   2016   0.245
 3 Afghanistan      574      36.8 Asia & Pacific co2   2017   0.247
 4 Afghanistan      574      36.8 Asia & Pacific co2   2018   0.254
 5 Afghanistan      574      36.8 Asia & Pacific cpi   2012   8    
 6 Afghanistan      574      36.8 Asia & Pacific cpi   2013   8    
 7 Afghanistan      574      36.8 Asia & Pacific cpi   2014  12    
 8 Afghanistan      574      36.8 Asia & Pacific cpi   2015  11    
 9 Afghanistan      574      36.8 Asia & Pacific cpi   2016  15    
10 Afghanistan      574      36.8 Asia & Pacific cpi   2017  15    
# ℹ 3,305 more rows

# Dictate pattern with names_pattern
pivot_longer(tib1,
             5:21,
             names_to = c("var", "year"),
             names_pattern = "(.*)_(.*)")

# A tibble: 3,315 × 7
   country     gdp_2015 gini_2015 region         var   year   value
   <chr>          <dbl>     <dbl> <chr>          <chr> <chr>  <dbl>
 1 Afghanistan      574      36.8 Asia & Pacific co2   2015   0.262
 2 Afghanistan      574      36.8 Asia & Pacific co2   2016   0.245
 3 Afghanistan      574      36.8 Asia & Pacific co2   2017   0.247
 4 Afghanistan      574      36.8 Asia & Pacific co2   2018   0.254
 5 Afghanistan      574      36.8 Asia & Pacific cpi   2012   8    
 6 Afghanistan      574      36.8 Asia & Pacific cpi   2013   8    
 7 Afghanistan      574      36.8 Asia & Pacific cpi   2014  12    
 8 Afghanistan      574      36.8 Asia & Pacific cpi   2015  11    
 9 Afghanistan      574      36.8 Asia & Pacific cpi   2016  15    
10 Afghanistan      574      36.8 Asia & Pacific cpi   2017  15    
# ℹ 3,305 more rows
…
pivot_wider(long_tib1,
            names_from = c("var", "year"),
            values_from = "value",
            names_sep = ".")

# A tibble: 195 × 21
   country         region gdp.2015 gini.2015 co2.2015 co2.2016 co2.2017 co2.2018
   <chr>           <chr>     <dbl>     <dbl>    <dbl>    <dbl>    <dbl>    <dbl>
 1 Afghanistan     Asia …      574      36.8    0.262    0.245    0.247    0.254
 2 Albania         Europe     4520      29      1.6      1.57     1.61     1.59 
 3 Algeria         Arab …     4780      27.6    3.8      3.64     3.56     3.69 
 4 Andorra         Europe    42100      40      5.97     6.07     6.27     6.12 
 5 Angola          Africa     3750      42.6    1.22     1.18     1.14     1.12 
 6 Antigua and Ba… South…    13300      40      5.84     5.9      5.89     5.88 
 7 Argentina       South…    10600      41.8    4.64     4.6      4.55     4.41 
 8 Armenia         Europe     3920      31.9    1.65     1.76     1.7      1.89 
 9 Australia       Asia …    55100      32.3   16.8     17       17       16.9  
10 Austria         Europe    47800      30.6    7.7      7.7      7.94     7.75 
# ℹ 185 more rows
# ℹ 13 more variables: cpi.2012 <dbl>, cpi.2013 <dbl>, cpi.2014 <dbl>,
#   cpi.2015 <dbl>, cpi.2016 <dbl>, cpi.2017 <dbl>, lifeexp.2012 <dbl>,
#   lifeexp.2013 <dbl>, lifeexp.2014 <dbl>, lifeexp.2015 <dbl>,
#   lifeexp.2016 <dbl>, lifeexp.2017 <dbl>, lifeexp.2018 <dbl>
…
