21 Machine Learning Basics – Data Science for Economic and Social Issues
…
# Check out coefficients
d_fit %>%
  extract_fit_parsnip() %>%
  tidy() 

Attaching package: 'Matrix'

The following objects are masked from 'package:tidyr':

    expand, pack, unpack

Loaded glmnet 4.1-8

# A tibble: 24 × 3
   term          estimate penalty
   <chr>            <dbl>   <dbl>
 1 (Intercept)     2338.      0.1
 2 carat          11015.      0.1
 3 depth            -64.7     0.1
 4 table            -28.5     0.1
 5 x               -912.      0.1
 6 y                  0       0.1
 7 z                -45.9     0.1
 8 cut_Good         537.      0.1
 9 cut_Very.Good    690.      0.1
10 cut_Premium      712.      0.1
# ℹ 14 more rows
…
